…
**What it does:** `as_tidy_growth_data()` converts growth data into a
tidy inspection/export format with core columns `sample`, `time`, and
`od`.

**Why use it:** It is the import layer for user-supplied assay tables.
Once the data have been standardized and checked, the primary workflow
should continue with a `SummarizedExperiment`.

**Minimal example:**

``` r
tidy_data <- as_tidy_growth_data(yeast_growth_data)
validate_growth_data(tidy_data)
#> # A tibble: 441 × 5
#>     time sample      od condition replicate
#>    <dbl> <chr>    <dbl> <chr>     <chr>    
#>  1   0   Cg_R1    0.115 Cg        R1       
#>  2   0   Cg_R2    0.116 Cg        R2       
#>  3   0   Cg_R3    0.117 Cg        R3       
#>  4   0   CgFlu_R1 0.131 CgFlu     R1       
#>  5   0   CgFlu_R2 0.133 CgFlu     R2       
#>  6   0   CgFlu_R3 0.132 CgFlu     R3       
#>  7   0   YPD_R1   0.105 YPD       R1       
#>  8   0   YPD_R2   0.105 YPD       R2       
#>  9   0   YPD_R3   0.104 YPD       R3       
#> 10   0.5 Cg_R1    0.116 Cg        R1       
#> # ℹ 431 more rows
…
