…
Validate tidy input

validate_growth_data() checks that tidy growth data
contains the required columns and valid values. This is useful before
downstream analysis so that problems are caught early.

validate_growth_data(tidy_data)
#> # A tibble: 441 × 5
#>     time sample      od condition replicate
#>    <dbl> <chr>    <dbl> <chr>     <chr>    
#>  1   0   Cg_R1    0.115 Cg        R1       
#>  2   0   Cg_R2    0.116 Cg        R2       
#>  3   0   Cg_R3    0.117 Cg        R3       
#>  4   0   CgFlu_R1 0.131 CgFlu     R1       
#>  5   0   CgFlu_R2 0.133 CgFlu     R2       
#>  6   0   CgFlu_R3 0.132 CgFlu     R3       
#>  7   0   YPD_R1   0.105 YPD       R1       
#>  8   0   YPD_R2   0.105 YPD       R2       
#>  9   0   YPD_R3   0.104 YPD       R3       
#> 10   0.5 Cg_R1    0.116 Cg        R1       
#> # ℹ 431 more rows
…
Detect exponential phase

detect_exponential_phase() identifies likely
exponential-phase windows automatically. This is useful for
understanding which time interval was used for growth-rate
estimation.

phase_tbl <- detect_exponential_phase(
  filter(tidy_data, sample == sample_id)
)

phase_tbl
#> # A tibble: 45 × 4
#>    start_time end_time slope r_squared
#>         <dbl>    <dbl> <dbl>     <dbl>
#>  1        4.5      6.5 0.576     1.000
#>  2        4        6   0.551     0.997
#>  3        5        7   0.551     0.997
#>  4        3.5      5.5 0.490     0.990
#>  5        5.5      7.5 0.490     0.991
#>  6        6        8   0.414     0.987
#>  7        3        5   0.409     0.985
#>  8        6.5      8.5 0.334     0.983
#>  9        2.5      4.5 0.321     0.975
#> 10        7        9   0.260     0.973
#> # ℹ 35 more rows
…
#> Nonlinear regression model
#>   model: od ~ K/(1 + exp(-r * (time - t0)))
#>    data: data
#>      K      r     t0 
#> 2.0271 0.7772 6.9688 
#>  residual sum-of-squares: 0.06883
#> 
#> Algorithm "port", convergence message: relative convergence (4)
#> 
#> $coefficients
#>         K         r        t0 
#> 2.0271408 0.7772492 6.9688283 
#> 
#> $fitted
#> # A tibble: 49 × 2
#>     time .fitted
#>    <dbl>   <dbl>
#>  1   0   0.00897
#>  2   0.5 0.0132 
#>  3   1   0.0194 
#>  4   1.5 0.0285 
#>  5   2   0.0417 
#>  6   2.5 0.0610 
#>  7   3   0.0887 
#>  8   3.5 0.128  
#>  9   4   0.183  
#> 10   4.5 0.259  
#> # ℹ 39 more rows
#> 
#> $data
#> # A tibble: 49 × 5
#>    sample  time    od condition replicate
#>    <chr>  <dbl> <dbl> <chr>     <chr>    
#>  1 Cg_R1    0   0.115 Cg        R1       
#>  2 Cg_R1    0.5 0.116 Cg        R1       
#>  3 Cg_R1    1   0.118 Cg        R1       
#>  4 Cg_R1    1.5 0.121 Cg        R1       
#>  5 Cg_R1    2   0.126 Cg        R1       
#>  6 Cg_R1    2.5 0.136 Cg        R1       
#>  7 Cg_R1    3   0.149 Cg        R1       
#>  8 Cg_R1    3.5 0.172 Cg        R1       
#>  9 Cg_R1    4   0.206 Cg        R1       
#> 10 Cg_R1    4.5 0.258 Cg        R1       
#> # ℹ 39 more rows
…
Workflow summary

A typical growkar v2 workflow is:

data(yeast_growth_data)

tidy_data <- as_tidy_growth_data(yeast_growth_data)
validate_growth_data(tidy_data)
#> # A tibble: 441 × 5
#>     time sample      od condition replicate
#>    <dbl> <chr>    <dbl> <chr>     <chr>    
#>  1   0   Cg_R1    0.115 Cg        R1       
#>  2   0   Cg_R2    0.116 Cg        R2       
#>  3   0   Cg_R3    0.117 Cg        R3       
#>  4   0   CgFlu_R1 0.131 CgFlu     R1       
#>  5   0   CgFlu_R2 0.133 CgFlu     R2       
#>  6   0   CgFlu_R3 0.132 CgFlu     R3       
#>  7   0   YPD_R1   0.105 YPD       R1       
#>  8   0   YPD_R2   0.105 YPD       R2       
#>  9   0   YPD_R3   0.104 YPD       R3       
#> 10   0.5 Cg_R1    0.116 Cg        R1       
#> # ℹ 431 more rows
…
