…
This example reads `CnH2O2_OD.txt`, converts it to the canonical tidy
format used by `growkar`, and validates the result.

``` r
dd_path <- if (file.exists("CnH2O2_OD.txt")) {
  "CnH2O2_OD.txt"
} else {
  system.file("extdata", "CnH2O2_OD.txt", package = "growkar")
}

dd <- read.delim(dd_path, check.names = FALSE)
tidy_dd <- as_tidy_growth_data(dd)
validate_growth_data(tidy_dd)
#> # A tibble: 2,088 × 5
#>     time sample           od condition   replicate
#>    <dbl> <chr>         <dbl> <chr>       <chr>    
#>  1     0 H2O2(8.8mM)_1 0.094 H2O2(8.8mM) 1        
#>  2     0 H2O2(8.8mM)_2 0.102 H2O2(8.8mM) 2        
#>  3     0 H2O2(8.8mM)_3 0.102 H2O2(8.8mM) 3        
#>  4     0 H2O2(4.4mM)_1 0.091 H2O2(4.4mM) 1        
#>  5     0 H2O2(4.4mM)_2 0.102 H2O2(4.4mM) 2        
#>  6     0 H2O2(4.4mM)_3 0.109 H2O2(4.4mM) 3        
#>  7     0 H2O2(2.2mM)_1 0.091 H2O2(2.2mM) 1        
#>  8     0 H2O2(2.2mM)_2 0.103 H2O2(2.2mM) 2        
#>  9     0 H2O2(2.2mM)_3 0.102 H2O2(2.2mM) 3        
#> 10     0 H2O2(1.1mM)_1 0.09  H2O2(1.1mM) 1        
#> # ℹ 2,078 more rows
…
