…
This example reads `ScBS181_OD.txt`, converts it to the canonical tidy
format used by `growkar`, and validates the result.

``` r
sc_path <- if (file.exists("ScBS181_OD.txt")) {
  "ScBS181_OD.txt"
} else {
  system.file("extdata", "ScBS181_OD.txt", package = "growkar")
}

sc_raw <- read.delim(sc_path, check.names = FALSE)
tidy_sc <- as_tidy_growth_data(sc_raw)
validate_growth_data(tidy_sc)
#> # A tibble: 2,064 × 5
#>     time sample        od condition replicate
#>    <dbl> <chr>      <dbl> <chr>     <chr>    
#>  1     0 Sc(100)_1  0.095 Sc(100)   1        
#>  2     0 Sc(100)_2  0.099 Sc(100)   2        
#>  3     0 Sc(100)_3  0.099 Sc(100)   3        
#>  4     0 Sc(50)_1   0.106 Sc(50)    1        
#>  5     0 Sc(50)_2   0.106 Sc(50)    2        
#>  6     0 Sc(50)_3   0.11  Sc(50)    3        
#>  7     0 Sc(25)_1   0.107 Sc(25)    1        
#>  8     0 Sc(25)_2   0.106 Sc(25)    2        
#>  9     0 Sc(25)_3   0.107 Sc(25)    3        
#> 10     0 Sc(12.5)_1 0.105 Sc(12.5)  1        
#> # ℹ 2,054 more rows
…
